…
nyc_subway_df
```

    ## # A tibble: 1,868 × 19
    ##    line     station_name station_latitude station_longitude route1 route2 route3
    ##    <chr>    <chr>                   <dbl>             <dbl> <chr>  <chr>  <chr> 
    ##  1 4 Avenue 25th St                  40.7             -74.0 R      <NA>   <NA>  
    ##  2 4 Avenue 25th St                  40.7             -74.0 R      <NA>   <NA>  
    ##  3 4 Avenue 36th St                  40.7             -74.0 N      R      <NA>  
    ##  4 4 Avenue 36th St                  40.7             -74.0 N      R      <NA>  
    ##  5 4 Avenue 36th St                  40.7             -74.0 N      R      <NA>  
    ##  6 4 Avenue 45th St                  40.6             -74.0 R      <NA>   <NA>  
    ##  7 4 Avenue 45th St                  40.6             -74.0 R      <NA>   <NA>  
    ##  8 4 Avenue 45th St                  40.6             -74.0 R      <NA>   <NA>  
    ##  9 4 Avenue 45th St                  40.6             -74.0 R      <NA>   <NA>  
    ## 10 4 Avenue 53rd St                  40.6             -74.0 R      <NA>   <NA>  
    ## # ℹ 1,858 more rows
    ## # ℹ 12 more variables: route4 <chr>, route5 <chr>, route6 <chr>, route7 <chr>,
    ## #   route8 <chr>, route9 <chr>, route10 <chr>, route11 <chr>, entry <lgl>,
    ## #   vending <chr>, entrance_type <chr>, ada <lgl>
…
``` r
nyc_subway_tidy = 
  pivot_longer(
    nyc_subway_df,
    cols = route1:route11,
    names_to = "route_number",
    values_to = "route_name"
  ) |>
  drop_na(route_name)

nyc_subway_tidy
```

    ## # A tibble: 4,270 × 10
    ##    line     station_name station_latitude station_longitude entry vending
    ##    <chr>    <chr>                   <dbl>             <dbl> <lgl> <chr>  
    ##  1 4 Avenue 25th St                  40.7             -74.0 TRUE  YES    
    ##  2 4 Avenue 25th St                  40.7             -74.0 TRUE  YES    
    ##  3 4 Avenue 36th St                  40.7             -74.0 TRUE  YES    
    ##  4 4 Avenue 36th St                  40.7             -74.0 TRUE  YES    
    ##  5 4 Avenue 36th St                  40.7             -74.0 TRUE  YES    
    ##  6 4 Avenue 36th St                  40.7             -74.0 TRUE  YES    
    ##  7 4 Avenue 36th St                  40.7             -74.0 TRUE  YES    
    ##  8 4 Avenue 36th St                  40.7             -74.0 TRUE  YES    
    ##  9 4 Avenue 45th St                  40.6             -74.0 TRUE  YES    
    ## 10 4 Avenue 45th St                  40.6             -74.0 TRUE  YES    
    ## # ℹ 4,260 more rows
    ## # ℹ 4 more variables: entrance_type <chr>, ada <lgl>, route_number <chr>,
    ## #   route_name <chr>
…
### Combined Dataset

``` r
combined_trash_wheel = 
  bind_rows(mr_trash_wheel, professor_trash_wheel, gwynnda_trash_wheel) |>
  select(trash_wheel_name, everything())

combined_trash_wheel
```

    ## # A tibble: 1,032 × 15
    ##    trash_wheel_name dumpster month  year date                weight_tons
    ##    <chr>               <dbl> <chr> <int> <dttm>                    <dbl>
    ##  1 Mr. Trash Wheel         1 May    2014 2014-05-16 00:00:00        4.31
    ##  2 Mr. Trash Wheel         2 May    2014 2014-05-16 00:00:00        2.74
    ##  3 Mr. Trash Wheel         3 May    2014 2014-05-16 00:00:00        3.45
    ##  4 Mr. Trash Wheel         4 May    2014 2014-05-17 00:00:00        3.1 
    ##  5 Mr. Trash Wheel         5 May    2014 2014-05-17 00:00:00        4.06
    ##  6 Mr. Trash Wheel         6 May    2014 2014-05-20 00:00:00        2.71
    ##  7 Mr. Trash Wheel         7 May    2014 2014-05-21 00:00:00        1.91
    ##  8 Mr. Trash Wheel         8 May    2014 2014-05-28 00:00:00        3.7 
    ##  9 Mr. Trash Wheel         9 June   2014 2014-06-05 00:00:00        2.52
    ## 10 Mr. Trash Wheel        10 June   2014 2014-06-11 00:00:00        3.76
    ## # ℹ 1,022 more rows
    ## # ℹ 9 more variables: volume_cubic_yards <dbl>, plastic_bottles <dbl>,
    ## #   polystyrene <dbl>, cigarette_butts <dbl>, glass_bottles <dbl>,
    ## #   plastic_bags <dbl>, wrappers <dbl>, sports_balls <int>, homes_powered <dbl>
…
``` r
missing_bakes
```

    ## # A tibble: 596 × 5
    ##    series episode first_name technical result
    ##     <dbl>   <dbl> <chr>          <dbl> <chr> 
    ##  1      1       2 Lea               NA <NA>  
    ##  2      1       2 Mark              NA <NA>  
    ##  3      1       3 Annetha           NA <NA>  
    ##  4      1       3 Lea               NA <NA>  
    ##  5      1       3 Louise            NA <NA>  
    ##  6      1       3 Mark              NA <NA>  
    ##  7      1       4 Annetha           NA <NA>  
    ##  8      1       4 Jonathan          NA <NA>  
    ##  9      1       4 Lea               NA <NA>  
    ## 10      1       4 Louise            NA <NA>  
    ## # ℹ 586 more rows
…
``` r
bake_off_winners = bake_off_df |>
  filter(series >= 5, result == "STAR BAKER" | result == "WINNER") |>
  select(series:first_name, last_name, age, occupation, signature_bake, result)

bake_off_winners
```

    ## # A tibble: 60 × 8
    ##    series episode first_name last_name     age occupation  signature_bake result
    ##     <dbl>   <dbl> <chr>      <chr>       <dbl> <chr>       <chr>          <chr> 
    ##  1      5       1 Nancy      Birtwhistle    60 Retired Pr… Coffee and Ha… STAR …
    ##  2      5       2 Richard    Burr           38 Builder     Rosemary Seed… STAR …
    ##  3      5       3 Luis       Troyano        42 Graphic De… Opposites Att… STAR …
    ##  4      5       4 Richard    Burr           38 Builder     Black Forest … STAR …
    ##  5      5       5 Kate       Henry          41 Furniture … Rhubarb and C… STAR …
    ##  6      5       6 Chetna     Makan          35 Fashion De… Orange Savari… STAR …
    ##  7      5       7 Richard    Burr           38 Builder     Minted Lamb P… STAR …
    ##  8      5       8 Richard    Burr           38 Builder     Fruit Swedish… STAR …
    ##  9      5       9 Richard    Burr           38 Builder     Rose and Pist… STAR …
    ## 10      5      10 Nancy      Birtwhistle    60 Retired Pr… Apple and Lem… WINNER
    ## # ℹ 50 more rows
…
